<svg width="32" height="32" viewBox="0 0 32 32" fill="none" xmlns="http://www.w3.org/2000/svg">
<path d="M13.3334 28C14.9092 28 16.4696 27.6896 17.9256 27.0866C19.3815 26.4835 20.7043 25.5996 21.8186 24.4853C22.9329 23.371 23.8169 22.0481 24.4199 20.5922C25.023 19.1363 25.3334 17.5759 25.3334 16C25.3334 14.4241 25.023 12.8637 24.4199 11.4078C23.8169 9.95189 22.9329 8.62902 21.8186 7.51472C20.7043 6.40042 19.3815 5.5165 17.9256 4.91345C16.4696 4.31039 14.9092 4 13.3334 4M20 16L14.6667 10.6667L20 16ZM20 16L14.6667 21.3333L20 16ZM20 16H6.66669H20Z" stroke="#DD55C0" stroke-width="2" stroke-linecap="round" stroke-linejoin="round"/>
</svg>
