<svg width="32" height="32" viewBox="0 0 32 32" fill="none" xmlns="http://www.w3.org/2000/svg">
<path d="M23 4L18 7.75V14.25L15 12L10 15.75V22.25L7 20L2 23.75V30H4V24.75L7 22.5L10 24.75V30H12V16.75L15 14.5L18 16.75V30H20V8.75L23 6.5L26 8.75V30H28V7.75L23 4Z" fill="#DD55C0"/>
</svg>
